{
	"ABI version": 2,
	"version": "2.1",
	"header": ["time", "expire"],
	"functions": [
		{
			"name": "constructor",
			"inputs": [
			],
			"outputs": [
			]
		},
		{
			"name": "addMilitaryUnit",
			"inputs": [
				{"name":"obj","type":"address"}
			],
			"outputs": [
			]
		},
		{
			"name": "deleteMilitaryUnit",
			"inputs": [
				{"name":"obj","type":"address"}
			],
			"outputs": [
			]
		},
		{
			"name": "destroy",
			"inputs": [
				{"name":"dest","type":"address"}
			],
			"outputs": [
			]
		},
		{
			"name": "takeTheAttack",
			"inputs": [
				{"name":"attackPower","type":"uint256"},
				{"name":"enemy","type":"address"}
			],
			"outputs": [
			]
		},
		{
			"name": "getStrengthOfDefense",
			"inputs": [
			],
			"outputs": [
				{"name":"value0","type":"uint256"}
			]
		},
		{
			"name": "hitPoints",
			"inputs": [
			],
			"outputs": [
				{"name":"hitPoints","type":"uint256"}
			]
		},
		{
			"name": "units",
			"inputs": [
			],
			"outputs": [
				{"name":"units","type":"map(address,address)"}
			]
		}
	],
	"data": [
	],
	"events": [
	],
	"fields": [
		{"name":"_pubkey","type":"uint256"},
		{"name":"_timestamp","type":"uint64"},
		{"name":"_constructorFlag","type":"bool"},
		{"name":"_strengthOfDefense","type":"uint256"},
		{"name":"hitPoints","type":"uint256"},
		{"name":"_isAlive","type":"bool"},
		{"name":"_strengthOfDefense","type":"uint256"},
		{"name":"_isAlive","type":"bool"},
		{"name":"units","type":"map(address,address)"}
	]
}
