{
	"ABI version": 2,
	"version": "2.1",
	"header": ["time", "expire"],
	"functions": [
		{
			"name": "constructor",
			"inputs": [
				{"name":"bStation","type":"address"}
			],
			"outputs": [
			]
		},
		{
			"name": "destroy",
			"inputs": [
				{"name":"dest","type":"address"}
			],
			"outputs": [
			]
		},
		{
			"name": "attack",
			"inputs": [
				{"name":"enemy","type":"address"}
			],
			"outputs": [
			]
		},
		{
			"name": "getAttackPower",
			"inputs": [
			],
			"outputs": [
				{"name":"value0","type":"uint256"}
			]
		},
		{
			"name": "takeTheAttack",
			"inputs": [
				{"name":"attackPower","type":"uint256"},
				{"name":"enemy","type":"address"}
			],
			"outputs": [
			]
		},
		{
			"name": "getStrengthOfDefense",
			"inputs": [
			],
			"outputs": [
				{"name":"value0","type":"uint256"}
			]
		},
		{
			"name": "hitPoints",
			"inputs": [
			],
			"outputs": [
				{"name":"hitPoints","type":"uint256"}
			]
		}
	],
	"data": [
	],
	"events": [
	],
	"fields": [
		{"name":"_pubkey","type":"uint256"},
		{"name":"_timestamp","type":"uint64"},
		{"name":"_constructorFlag","type":"bool"},
		{"name":"_strengthOfDefense","type":"uint256"},
		{"name":"hitPoints","type":"uint256"},
		{"name":"_isAlive","type":"bool"},
		{"name":"_attackPower","type":"uint256"},
		{"name":"_strengthOfDefense","type":"uint256"},
		{"name":"_isAlive","type":"bool"},
		{"name":"addrStation","type":"address"},
		{"name":"myAddr","type":"address"},
		{"name":"_attackPower","type":"uint256"},
		{"name":"_strengthOfDefense","type":"uint256"}
	]
}
